<?xml version="1.0" encoding="UTF-8" standalone="no"?>
<!-- Created with Inkscape (http://www.inkscape.org/) -->

<svg
   width="1000.0001"
   height="240"
   viewBox="0 0 264.58335 63.5"
   version="1.1"
   id="svg1"
   xml:space="preserve"
   inkscape:version="1.3.2 (091e20e, 2023-11-25, custom)"
   sodipodi:docname="guide_banner.svg"
   inkscape:export-filename="guide_banner.png"
   inkscape:export-xdpi="96"
   inkscape:export-ydpi="96"
   xmlns:inkscape="http://www.inkscape.org/namespaces/inkscape"
   xmlns:sodipodi="http://sodipodi.sourceforge.net/DTD/sodipodi-0.dtd"
   xmlns="http://www.w3.org/2000/svg"
   xmlns:svg="http://www.w3.org/2000/svg"><sodipodi:namedview
     id="namedview1"
     pagecolor="#ffffff"
     bordercolor="#000000"
     borderopacity="0.25"
     inkscape:showpageshadow="false"
     inkscape:pageopacity="0.0"
     inkscape:pagecheckerboard="0"
     inkscape:deskcolor="#d1d1d1"
     inkscape:document-units="px"
     showborder="false"
     borderlayer="false"
     shape-rendering="crispEdges"
     inkscape:zoom="1.0343421"
     inkscape:cx="487.74965"
     inkscape:cy="246.05012"
     inkscape:window-width="2560"
     inkscape:window-height="1017"
     inkscape:window-x="-8"
     inkscape:window-y="-8"
     inkscape:window-maximized="1"
     inkscape:current-layer="layer1"
     inkscape:clip-to-page="false" /><defs
     id="defs1" /><g
     inkscape:label="Layer 1"
     inkscape:groupmode="layer"
     id="layer1"
     transform="translate(27.202147,-116.75)"><rect
       style="fill:#5a8d91;stroke-width:1.05833;stroke-linejoin:round;fill-opacity:1"
       id="rect1"
       width="264.58337"
       height="13.557329"
       x="-27.202147"
       y="116.75" /><rect
       style="fill:#5a8d91;stroke-width:1.05833;stroke-linejoin:round;fill-opacity:1"
       id="rect1-3"
       width="264.58337"
       height="13.557329"
       x="-27.202147"
       y="166.69267" /><rect
       style="fill:#fedd8a;stroke-width:1.05833;stroke-linejoin:round;fill-opacity:1"
       id="rect2"
       width="264.58337"
       height="36.385345"
       x="-27.202147"
       y="130.30733" /><text
       xml:space="preserve"
       style="font-weight:bold;font-size:25.4px;font-family:'IBM Plex Mono';-inkscape-font-specification:'IBM Plex Mono Bold';letter-spacing:1.32292px;word-spacing:0px;writing-mode:tb-rl;text-orientation:upright;fill:#759a8f;fill-opacity:1;stroke-width:1.05833;stroke-linejoin:round"
       x="104.45453"
       y="157.36459"
       id="text2"><tspan
         sodipodi:role="line"
         id="tspan2"
         style="font-style:normal;font-variant:normal;font-weight:bold;font-stretch:normal;font-size:25.4px;font-family:'IBM Plex Sans';-inkscape-font-specification:'IBM Plex Sans Bold';text-align:center;letter-spacing:1.32292px;writing-mode:lr-tb;text-anchor:middle;fill:#759a8f;fill-opacity:1;stroke-width:1.05833"
         x="105.11598"
         y="157.36459">HOW TO USE NEXT</tspan></text></g></svg>
