<?xml version="1.0" encoding="UTF-8" standalone="no"?>
<!-- Created with Inkscape (http://www.inkscape.org/) -->

<svg
   width="800"
   height="300"
   viewBox="0 0 211.66666 79.375002"
   version="1.1"
   id="svg5"
   inkscape:version="1.2 (dc2aedaf03, 2022-05-15)"
   sodipodi:docname="anatomy_var -banner.svg"
   inkscape:export-filename="anatomy_var_banner.png"
   inkscape:export-xdpi="96"
   inkscape:export-ydpi="96"
   xmlns:inkscape="http://www.inkscape.org/namespaces/inkscape"
   xmlns:sodipodi="http://sodipodi.sourceforge.net/DTD/sodipodi-0.dtd"
   xmlns:xlink="http://www.w3.org/1999/xlink"
   xmlns="http://www.w3.org/2000/svg"
   xmlns:svg="http://www.w3.org/2000/svg">
  <sodipodi:namedview
     id="namedview7"
     pagecolor="#ffffff"
     bordercolor="#000000"
     borderopacity="0.25"
     inkscape:showpageshadow="2"
     inkscape:pageopacity="1"
     inkscape:pagecheckerboard="0"
     inkscape:deskcolor="#d1d1d1"
     inkscape:document-units="px"
     showgrid="false"
     showborder="false"
     inkscape:zoom="1.0733182"
     inkscape:cx="200.77923"
     inkscape:cy="313.97958"
     inkscape:window-width="2560"
     inkscape:window-height="1017"
     inkscape:window-x="-8"
     inkscape:window-y="-8"
     inkscape:window-maximized="1"
     inkscape:current-layer="layer1"
     showguides="true" />
  <defs
     id="defs2">
    <inkscape:path-effect
       effect="spiro"
       id="path-effect6803"
       is_visible="true"
       lpeversion="1" />
    <linearGradient
       xlink:href="#linearGradient2023"
       id="linearGradient2025"
       x1="2689.252"
       y1="-1106.803"
       x2="2918.0698"
       y2="-1106.803"
       gradientUnits="userSpaceOnUse" />
    <linearGradient
       id="linearGradient2023">
      <stop
         style="stop-color:#62a0ea;stop-opacity:1;"
         offset="0"
         id="stop2019" />
      <stop
         style="stop-color:#afd4ff;stop-opacity:1;"
         offset="0.05769911"
         id="stop2795" />
      <stop
         style="stop-color:#62a0ea;stop-opacity:1;"
         offset="0.12220427"
         id="stop2797" />
      <stop
         style="stop-color:#62a0ea;stop-opacity:1;"
         offset="0.87330586"
         id="stop2793" />
      <stop
         style="stop-color:#c0d5ea;stop-opacity:1;"
         offset="0.95599729"
         id="stop2791" />
      <stop
         style="stop-color:#62a0ea;stop-opacity:1;"
         offset="1"
         id="stop2021" />
    </linearGradient>
    <linearGradient
       id="linearGradient1777"
       x1="0.52969003"
       x2="16.774"
       y1="15.081"
       y2="2.5021999"
       gradientTransform="translate(-19.155,-0.46327)"
       gradientUnits="userSpaceOnUse">
      <stop
         stop-color="#0078e1"
         offset="0"
         id="stop4157" />
      <stop
         stop-color="#05b9ff"
         offset="1"
         id="stop4159" />
    </linearGradient>
    <linearGradient
       id="linearGradient969"
       x1="-16.139999"
       x2="-1.0699"
       y1="-55.616001"
       y2="-44.834999"
       gradientTransform="matrix(1,0,0,1.1,16.669,62.435)"
       gradientUnits="userSpaceOnUse">
      <stop
         stop-color="#8255ff"
         offset="0"
         id="stop4853" />
      <stop
         stop-color="#8273ff"
         offset="1"
         id="stop4855" />
    </linearGradient>
    <linearGradient
       id="linearGradient1006"
       x1="0.52938998"
       x2="16.216999"
       y1="2.7783999"
       y2="14.872"
       gradientTransform="matrix(1,0,0,1.1,16.669,62.435)"
       gradientUnits="userSpaceOnUse">
      <stop
         stop-color="#8255ff"
         offset="0"
         id="stop4848" />
      <stop
         stop-color="#8273ff"
         offset="1"
         id="stop4850" />
    </linearGradient>
    <linearGradient
       id="linearGradient1064"
       x1="-15.961"
       x2="-0.30109"
       y1="-43.254002"
       y2="-54.195999"
       gradientTransform="matrix(1,0,0,1.1,16.669,62.435)"
       gradientUnits="userSpaceOnUse">
      <stop
         stop-color="#8255ff"
         offset="0"
         id="stop4843" />
      <stop
         stop-color="#8273ff"
         offset="1"
         id="stop4845" />
    </linearGradient>
    <linearGradient
       id="linearGradient963"
       x1="-16.139999"
       x2="-1.0699"
       y1="-55.616001"
       y2="-44.834999"
       gradientTransform="matrix(1,0,0,1.1,16.669,62.435)"
       gradientUnits="userSpaceOnUse">
      <stop
         stop-color="#e65a0a"
         offset="0"
         id="stop4653" />
      <stop
         stop-color="#f57800"
         offset="1"
         id="stop4655" />
    </linearGradient>
    <linearGradient
       id="linearGradient1006-9"
       x1="0.52938998"
       x2="16.216999"
       y1="2.7783999"
       y2="14.872"
       gradientTransform="matrix(1,0,0,1.1,16.669,62.435)"
       gradientUnits="userSpaceOnUse">
      <stop
         stop-color="#e65a0a"
         offset="0"
         id="stop4648" />
      <stop
         stop-color="#f57800"
         offset="1"
         id="stop4650" />
    </linearGradient>
    <linearGradient
       id="linearGradient1064-4"
       x1="-15.961"
       x2="-0.30109"
       y1="-43.254002"
       y2="-54.195999"
       gradientTransform="matrix(1,0,0,1.1,16.669,62.435)"
       gradientUnits="userSpaceOnUse">
      <stop
         stop-color="#e65a0a"
         offset="0"
         id="stop4643" />
      <stop
         stop-color="#f57800"
         offset="1"
         id="stop4645" />
    </linearGradient>
    <linearGradient
       id="linearGradient1064-48"
       x1="-15.961"
       x2="-0.30109"
       y1="-43.254002"
       y2="-54.195999"
       gradientTransform="matrix(1,0,0,1.1,16.669,62.435)"
       gradientUnits="userSpaceOnUse">
      <stop
         stop-color="#148c64"
         offset="0"
         id="stop4477" />
      <stop
         stop-color="#14d778"
         offset="1"
         id="stop4479" />
    </linearGradient>
    <linearGradient
       id="linearGradient945"
       x1="-16.139999"
       x2="-1.0699"
       y1="-55.616001"
       y2="-44.834999"
       gradientTransform="matrix(1,0,0,1.1,16.669,62.435)"
       gradientUnits="userSpaceOnUse">
      <stop
         stop-color="#d73232"
         offset="0"
         id="stop4309" />
      <stop
         stop-color="#eb4646"
         offset="1"
         id="stop4311" />
    </linearGradient>
    <linearGradient
       id="linearGradient1006-6"
       x1="0.52938998"
       x2="16.216999"
       y1="2.7783999"
       y2="14.872"
       gradientTransform="matrix(1,0,0,1.1,16.669,62.435)"
       gradientUnits="userSpaceOnUse">
      <stop
         stop-color="#d73232"
         offset="0"
         id="stop4304" />
      <stop
         stop-color="#eb4646"
         offset="1"
         id="stop4306" />
    </linearGradient>
    <linearGradient
       id="linearGradient1064-5"
       x1="-15.961"
       x2="-0.30109"
       y1="-43.254002"
       y2="-54.195999"
       gradientTransform="matrix(1,0,0,1.1,16.669,62.435)"
       gradientUnits="userSpaceOnUse">
      <stop
         stop-color="#d73232"
         offset="0"
         id="stop4299" />
      <stop
         stop-color="#eb4646"
         offset="1"
         id="stop4301" />
    </linearGradient>
  </defs>
  <g
     inkscape:label="Layer 1"
     inkscape:groupmode="layer"
     id="layer1">
    <text
       xml:space="preserve"
       style="font-style:normal;font-variant:normal;font-weight:normal;font-stretch:normal;font-size:19.7556px;font-family:'IBM Plex Serif';-inkscape-font-specification:'IBM Plex Serif';text-align:center;text-orientation:upright;text-anchor:middle;opacity:0.9;fill:#000000;stroke:#000000;stroke-width:2.61223;stroke-linecap:square;stroke-linejoin:bevel;stroke-miterlimit:0;paint-order:markers stroke fill"
       x="18.567255"
       y="57.709038"
       id="text186"><tspan
         sodipodi:role="line"
         id="tspan184"
         x="18.567255"
         y="57.709038"
         style="font-style:normal;font-variant:normal;font-weight:normal;font-stretch:normal;font-family:'IBM Plex Serif';-inkscape-font-specification:'IBM Plex Serif';stroke-width:2.61223" /></text>
    <rect
       style="fill:#000000;stroke:none;stroke-width:3.15576;stroke-linecap:square;stroke-linejoin:bevel;stroke-miterlimit:0;paint-order:markers stroke fill"
       id="rect874"
       width="211.66664"
       height="18.855362"
       x="1.3320557e-05"
       y="-2.6148834e-08" />
    <path
       id="text190"
       style="font-style:normal;font-variant:normal;font-weight:normal;font-stretch:normal;font-size:33.8667px;font-family:'IBM Plex Serif';-inkscape-font-specification:'IBM Plex Serif';text-align:center;text-orientation:upright;text-anchor:middle;fill:#ffffff;stroke:none;stroke-width:4.09313;stroke-linecap:square;stroke-linejoin:bevel;stroke-miterlimit:0;paint-order:markers stroke fill"
       d="M 58.300565,8.0742896 61.224474,19.10676 h 8.486705 L 67.162982,8.0742896 Z m 22.447137,0 -2.578967,11.0324704 h 8.092369 L 89.185013,8.0742896 Z m 19.209865,0 -2.987069,11.0324704 h 7.327992 l 0.85993,-3.338487 h 0.42429 l 0.85993,3.338487 h 7.75228 L 111.20785,8.0742896 Z m 25.578333,0 V 19.10676 h 7.8535 v -4.61137 h 4.5636 c 3.71464,0 4.9879,1.326572 4.9879,4.563596 v 0.04778 h 8.26161 C 150.92527,12.37175 146.87654,8.0742956 139.86315,8.0742956 Z" />
    <rect
       style="fill:#000000;stroke:none;stroke-width:3.5048;stroke-linecap:square;stroke-linejoin:bevel;stroke-miterlimit:0;paint-order:markers stroke fill"
       id="rect874-3"
       width="211.66667"
       height="23.257088"
       x="0"
       y="56.117912" />
    <path
       id="text190-9"
       style="font-style:normal;font-variant:normal;font-weight:normal;font-stretch:normal;font-size:33.8667px;font-family:'IBM Plex Serif';-inkscape-font-specification:'IBM Plex Serif';text-align:center;text-orientation:upright;text-anchor:middle;fill:#ffffff;stroke:none;stroke-width:4.09313;stroke-linecap:square;stroke-linejoin:bevel;stroke-miterlimit:0;paint-order:markers stroke fill"
       d="M 60.464156,53.367529 67.358137,79.375 H 78.607615 L 85.500786,53.367529 H 77.408417 L 75.583302,61.173257 73.354135,71.8397 H 72.92984 L 70.754114,61.173257 68.950861,53.367529 Z m 35.746024,0 L 89.168022,79.375 h 8.065648 l 2.281798,-8.915054 h 10.136112 l 2.33443,8.915054 h 8.49076 l -7.04216,-26.007471 h -7.75229 l 2.74901,10.671343 h -7.64216 l 2.74901,-10.671343 z m 28.56541,0 V 79.375 h 7.8535 V 65.630774 h 3.66156 L 142.49961,79.375 h 8.7029 l -7.2705,-14.80576 c 4.13915,-1.167457 6.52717,-5.253059 6.52717,-10.453526 0,-0.252908 -0.007,-0.501716 -0.017,-0.748185 h -8.2616 v 1.544142 c 0,3.237025 -1.27327,4.563598 -4.98789,4.563598 h -4.5636 v -6.10774 z" />
    <text
       xml:space="preserve"
       style="font-style:normal;font-variant:normal;font-weight:bold;font-stretch:normal;font-size:16.9333px;font-family:'IBM Plex Mono';-inkscape-font-specification:'IBM Plex Mono Bold';text-align:center;text-orientation:upright;text-anchor:middle;fill:#ffffff;stroke:none;stroke-width:2.61223;stroke-linecap:square;stroke-linejoin:bevel;stroke-miterlimit:0;paint-order:markers stroke fill"
       x="105.94198"
       y="49.134193"
       id="text1004"><tspan
         sodipodi:role="line"
         id="tspan1002"
         style="font-style:normal;font-variant:normal;font-weight:bold;font-stretch:normal;font-size:16.9333px;font-family:'IBM Plex Sans';-inkscape-font-specification:'IBM Plex Sans Bold';fill:#000000;stroke-width:2.61223"
         x="105.94198"
         y="49.134193">anatomy of a VAR</tspan></text>
  </g>
</svg>
